…
```r
hiv_data
```

```
## # A tibble: 6,005 × 18
##     Year Borough UHF   Gender      Age    Race  `HIV diagnoses` `HIV diagnosis…`
##    <dbl> <chr>   <chr> <chr>       <chr>  <chr>           <dbl>            <dbl>
##  1  2011 All     All   All         All    All              3379             48.3
##  2  2011 All     All   Male        All    All              2595             79.1
##  3  2011 All     All   Female      All    All               733             21.1
##  4  2011 All     All   Transgender All    All                51          99999  
##  5  2011 All     All   Female      13 - … All                47             13.6
##  6  2011 All     All   Female      20 - … All               178             24.7
##  7  2011 All     All   Female      30 - … All               176             26.9
##  8  2011 All     All   Female      40 - … All               195             33  
##  9  2011 All     All   Female      50 - … All               130             23.5
## 10  2011 All     All   Female      60+    All                57              6.7
## # … with 5,995 more rows, and 10 more variables: `Concurrent diagnoses` <dbl>,
## #   `% linked to care within 3 months` <dbl>, `AIDS diagnoses` <dbl>,
## #   `AIDS diagnosis rate` <dbl>, `PLWDHI prevalence` <dbl>,
## #   `% viral suppression` <dbl>, Deaths <dbl>, `Death rate` <dbl>,
## #   `HIV-related death rate` <dbl>, `Non-HIV-related death rate` <dbl>
```
…
```r
clean_hiv_data <- clean_names(hiv_data)
clean_hiv_data
```

```
## # A tibble: 6,005 × 18
##     year borough uhf   gender      age     race  hiv_diagnoses hiv_diagnosis_ra…
##    <dbl> <chr>   <chr> <chr>       <chr>   <chr>         <dbl>             <dbl>
##  1  2011 All     All   All         All     All            3379              48.3
##  2  2011 All     All   Male        All     All            2595              79.1
##  3  2011 All     All   Female      All     All             733              21.1
##  4  2011 All     All   Transgender All     All              51           99999  
##  5  2011 All     All   Female      13 - 19 All              47              13.6
##  6  2011 All     All   Female      20 - 29 All             178              24.7
##  7  2011 All     All   Female      30 - 39 All             176              26.9
##  8  2011 All     All   Female      40 - 49 All             195              33  
##  9  2011 All     All   Female      50 - 59 All             130              23.5
## 10  2011 All     All   Female      60+     All              57               6.7
## # … with 5,995 more rows, and 10 more variables: concurrent_diagnoses <dbl>,
## #   percent_linked_to_care_within_3_months <dbl>, aids_diagnoses <dbl>,
## #   aids_diagnosis_rate <dbl>, plwdhi_prevalence <dbl>,
## #   percent_viral_suppression <dbl>, deaths <dbl>, death_rate <dbl>,
## #   hiv_related_death_rate <dbl>, non_hiv_related_death_rate <dbl>
```
…
```r
year_clean_hiv_data <- clean_hiv_data %>% 
  group_by(year) %>% 
  mutate(sum_diagnoses=sum(only_hiv_diagnoses))
clean_hiv_data
```

```
## # A tibble: 4,804 × 19
##     year borough uhf   gender      age     race  hiv_diagnoses hiv_diagnosis_ra…
##    <dbl> <chr>   <chr> <chr>       <chr>   <chr>         <dbl>             <dbl>
##  1  2011 All     All   All         All     All            3379              48.3
##  2  2011 All     All   Male        All     All            2595              79.1
##  3  2011 All     All   Female      All     All             733              21.1
##  4  2011 All     All   Transgender All     All              51           99999  
##  5  2011 All     All   Female      13 - 19 All              47              13.6
##  6  2011 All     All   Female      20 - 29 All             178              24.7
##  7  2011 All     All   Female      30 - 39 All             176              26.9
##  8  2011 All     All   Female      40 - 49 All             195              33  
##  9  2011 All     All   Female      50 - 59 All             130              23.5
## 10  2011 All     All   Female      60+     All              57               6.7
## # … with 4,794 more rows, and 11 more variables: concurrent_diagnoses <dbl>,
## #   percent_linked_to_care_within_3_months <dbl>, aids_diagnoses <dbl>,
## #   aids_diagnosis_rate <dbl>, plwdhi_prevalence <dbl>,
## #   percent_viral_suppression <dbl>, deaths <dbl>, death_rate <dbl>,
## #   hiv_related_death_rate <dbl>, non_hiv_related_death_rate <dbl>,
## #   only_hiv_diagnoses <dbl>
```
…
