…
```r
demo_age_list <- list(demo_2011_age, demo_2012_age, demo_2013_age, demo_2014_age, demo_2015_age)
demo_age_all <- bind_rows(demo_age_list)
demo_age_all
```

```
## # A tibble: 65 × 4
##    age_group      population percent_pop_for_year  year
##    <chr>               <dbl>                <dbl> <dbl>
##  1 Under 5 years      534400                 6.48  2011
##  2 5 to 9 years       473915                 5.75  2011
##  3 10 to 14 years     467219                 5.67  2011
##  4 15 to 19 years     508178                 6.16  2011
##  5 20 to 24 years     643544                 7.81  2011
##  6 25 to 34 years    1423451                17.3   2011
##  7 35 to 44 years    1151332                14.0   2011
##  8 45 to 54 years    1109379                13.5   2011
##  9 55 to 59 years     495114                 6.01  2011
## 10 60 to 64 years     426382                 5.17  2011
## # … with 55 more rows
```


```r
demo_race_list <- list(demo_2011_race, demo_2012_race, demo_2013_race, demo_2014_race, demo_2015_race)
demo_race_all <- bind_rows(demo_race_list)
demo_race_all
```

```
## # A tibble: 35 × 4
##    race                                        population percent_pop_for…  year
##    <chr>                                            <dbl>            <dbl> <dbl>
##  1 "White"                                        3618421          43.9     2011
##  2 "Black or African American"                    2054101          24.9     2011
##  3 "American Indian and Alaska Native"              27390           0.332   2011
##  4 "Asian"                                        1051946          12.8     2011
##  5 "Native Hawaiian and Other Pacific Islande…       4321           0.0524  2011
##  6 "Some other race"                              1236450          15.0     2011
##  7 "Two or more races"                             252281           3.06    2011
##  8 "    White"                                    3647131          43.7     2012
##  9 "    Black or African American"                2058522          24.7     2012
## 10 "    American Indian and Alaska Native"          30230           0.363   2012
## # … with 25 more rows
```
…
