…
```r
data_raw
```

```
## # A tibble: 6,005 × 18
##     Year Borough UHF   Gender      Age    Race  `HIV diagnoses` `HIV diagnosis…`
##    <dbl> <chr>   <chr> <chr>       <chr>  <chr>           <dbl>            <dbl>
##  1  2011 All     All   All         All    All              3379             48.3
##  2  2011 All     All   Male        All    All              2595             79.1
##  3  2011 All     All   Female      All    All               733             21.1
##  4  2011 All     All   Transgender All    All                51          99999  
##  5  2011 All     All   Female      13 - … All                47             13.6
##  6  2011 All     All   Female      20 - … All               178             24.7
##  7  2011 All     All   Female      30 - … All               176             26.9
##  8  2011 All     All   Female      40 - … All               195             33  
##  9  2011 All     All   Female      50 - … All               130             23.5
## 10  2011 All     All   Female      60+    All                57              6.7
## # … with 5,995 more rows, and 10 more variables: `Concurrent diagnoses` <dbl>,
## #   `% linked to care within 3 months` <dbl>, `AIDS diagnoses` <dbl>,
## #   `AIDS diagnosis rate` <dbl>, `PLWDHI prevalence` <dbl>,
## #   `% viral suppression` <dbl>, Deaths <dbl>, `Death rate` <dbl>,
## #   `HIV-related death rate` <dbl>, `Non-HIV-related death rate` <dbl>
```
…
```r
data_clean <- data_raw %>% 
  clean_names() %>% 
  na_if("99999") %>% 
  filter(gender != "All",
         borough != "All",
         uhf != "All") %>% 
  select(-uhf, -percent_linked_to_care_within_3_months) #remove variables not of interest
data_clean
```

```
## # A tibble: 5,040 × 16
##     year borough gender age     race              hiv_diagnoses hiv_diagnosis_r…
##    <dbl> <chr>   <chr>  <chr>   <chr>                     <dbl>            <dbl>
##  1  2011 Bronx   Female 13 - 19 All                           1              8.1
##  2  2011 Bronx   Female 20 - 29 All                           5             27.3
##  3  2011 Bronx   Female 30 - 39 All                          12             78  
##  4  2011 Bronx   Female 40 - 49 All                           7             44.5
##  5  2011 Bronx   Female 50 - 59 All                           5             38.5
##  6  2011 Bronx   Female 60+     All                           1              7  
##  7  2011 Bronx   Female All     All                          31             34.8
##  8  2011 Bronx   Female All     Asian/Pacific Is…             0              0  
##  9  2011 Bronx   Female All     Black                        16             60.7
## 10  2011 Bronx   Female All     Latino/Hispanic              13             22  
## # … with 5,030 more rows, and 9 more variables: concurrent_diagnoses <dbl>,
## #   aids_diagnoses <dbl>, aids_diagnosis_rate <dbl>, plwdhi_prevalence <dbl>,
## #   percent_viral_suppression <dbl>, deaths <dbl>, death_rate <dbl>,
## #   hiv_related_death_rate <dbl>, non_hiv_related_death_rate <dbl>
```
…
```r
demo_race_all
```

```
## # A tibble: 35 × 4
##    race                                       population percent_pop_for_…  year
##    <chr>                                           <dbl>             <dbl> <dbl>
##  1 White                                         3618421           43.9     2011
##  2 Black or African American                     2054101           24.9     2011
##  3 American Indian and Alaska Native               27390            0.332   2011
##  4 Asian                                         1051946           12.8     2011
##  5 Native Hawaiian and Other Pacific Islander       4321            0.0524  2011
##  6 Some other race                               1236450           15.0     2011
##  7 Two or more races                              252281            3.06    2011
##  8 White                                         3647131           43.7     2012
##  9 Black or African American                     2058522           24.7     2012
## 10 American Indian and Alaska Native               30230            0.363   2012
## # … with 25 more rows
```
…
```r
data_clean %>% 
  filter(age != "All") %>% 
  group_by(age, year) %>% 
  summarize(sum_hiv_diagnoses = sum(hiv_diagnoses))
```

```
## `summarise()` has grouped output by 'age'. You can override using the `.groups`
## argument.
```

```
## # A tibble: 30 × 3
## # Groups:   age [6]
##    age      year sum_hiv_diagnoses
##    <chr>   <dbl>             <dbl>
##  1 13 - 19  2011               151
##  2 13 - 19  2012               128
##  3 13 - 19  2013               104
##  4 13 - 19  2014                88
##  5 13 - 19  2015                66
##  6 20 - 29  2011               931
##  7 20 - 29  2012               906
##  8 20 - 29  2013               889
##  9 20 - 29  2014               792
## 10 20 - 29  2015               797
## # … with 20 more rows
```
…
```r
data_clean %>% 
  filter(age != "All") %>% 
  group_by(age, year) %>% 
  summarize(sum_aids_diagnoses = sum(aids_diagnoses))
```

```
## `summarise()` has grouped output by 'age'. You can override using the `.groups`
## argument.
```

```
## # A tibble: 30 × 3
## # Groups:   age [6]
##    age      year sum_aids_diagnoses
##    <chr>   <dbl>              <dbl>
##  1 13 - 19  2011                 47
##  2 13 - 19  2012                 27
##  3 13 - 19  2013                 24
##  4 13 - 19  2014                 14
##  5 13 - 19  2015                 20
##  6 20 - 29  2011                370
##  7 20 - 29  2012                332
##  8 20 - 29  2013                319
##  9 20 - 29  2014                197
## 10 20 - 29  2015                192
## # … with 20 more rows
```
…
```r
data_clean %>% 
  filter(age != "All", year != 2015) %>% 
  group_by(age, year) %>% 
  summarize(avg_hiv_related_death_rate = mean(hiv_related_death_rate, na.rm = T))
```

```
## `summarise()` has grouped output by 'age'. You can override using the `.groups`
## argument.
```

```
## # A tibble: 24 × 3
## # Groups:   age [6]
##    age      year avg_hiv_related_death_rate
##    <chr>   <dbl>                      <dbl>
##  1 13 - 19  2011                      0.893
##  2 13 - 19  2012                      0.518
##  3 13 - 19  2013                      0.283
##  4 13 - 19  2014                      0    
##  5 20 - 29  2011                      2.38 
##  6 20 - 29  2012                      4.27 
##  7 20 - 29  2013                      2.46 
##  8 20 - 29  2014                      2.30 
##  9 30 - 39  2011                      4.01 
## 10 30 - 39  2012                      3.82 
## # … with 14 more rows
```
…
```r
data_clean %>% 
  group_by(race, year) %>% 
  filter(race != "All") %>% 
  summarize(sum_hiv_diagnoses = sum(hiv_diagnoses))
```

```
## `summarise()` has grouped output by 'race'. You can override using the
## `.groups` argument.
```

```
## # A tibble: 25 × 3
## # Groups:   race [5]
##    race                    year sum_hiv_diagnoses
##    <chr>                  <dbl>             <dbl>
##  1 Asian/Pacific Islander  2011                96
##  2 Asian/Pacific Islander  2012               100
##  3 Asian/Pacific Islander  2013               110
##  4 Asian/Pacific Islander  2014               112
##  5 Asian/Pacific Islander  2015               106
##  6 Black                   2011              1318
##  7 Black                   2012              1168
##  8 Black                   2013              1007
##  9 Black                   2014              1034
## 10 Black                   2015               933
## # … with 15 more rows
```
…
```r
data_clean %>% 
  filter(race != "All") %>% 
  group_by(race, year) %>% 
  summarize(sum_aids_diagnoses = sum(aids_diagnoses, na.rm = T))
```

```
## `summarise()` has grouped output by 'race'. You can override using the
## `.groups` argument.
```

```
## # A tibble: 25 × 3
## # Groups:   race [5]
##    race                    year sum_aids_diagnoses
##    <chr>                  <dbl>              <dbl>
##  1 Asian/Pacific Islander  2011                 41
##  2 Asian/Pacific Islander  2012                 41
##  3 Asian/Pacific Islander  2013                 42
##  4 Asian/Pacific Islander  2014                 39
##  5 Asian/Pacific Islander  2015                 47
##  6 Black                   2011               1097
##  7 Black                   2012                945
##  8 Black                   2013                835
##  9 Black                   2014                640
## 10 Black                   2015                574
## # … with 15 more rows
```
…
```r
data_clean %>% 
  group_by(race, year) %>% 
  filter(race != "All") %>% 
  summarize(avg_hiv_death_rate = mean(hiv_related_death_rate, na.rm = T))
```

```
## `summarise()` has grouped output by 'race'. You can override using the
## `.groups` argument.
```

```
## # A tibble: 25 × 3
## # Groups:   race [5]
##    race                    year avg_hiv_death_rate
##    <chr>                  <dbl>              <dbl>
##  1 Asian/Pacific Islander  2011              4.23 
##  2 Asian/Pacific Islander  2012              5.56 
##  3 Asian/Pacific Islander  2013              1.31 
##  4 Asian/Pacific Islander  2014              0.470
##  5 Asian/Pacific Islander  2015            NaN    
##  6 Black                   2011              6.51 
##  7 Black                   2012              4.42 
##  8 Black                   2013              3.41 
##  9 Black                   2014              4.09 
## 10 Black                   2015            NaN    
## # … with 15 more rows
```
…
